<?xml version="1.0" encoding="UTF-8" standalone="no"?>
<!-- Created with Inkscape (http://www.inkscape.org/) -->

<svg
   xmlns:dc="http://purl.org/dc/elements/1.1/"
   xmlns:cc="http://creativecommons.org/ns#"
   xmlns:rdf="http://www.w3.org/1999/02/22-rdf-syntax-ns#"
   xmlns:svg="http://www.w3.org/2000/svg"
   xmlns="http://www.w3.org/2000/svg"
   xmlns:sodipodi="http://sodipodi.sourceforge.net/DTD/sodipodi-0.dtd"
   xmlns:inkscape="http://www.inkscape.org/namespaces/inkscape"
   width="408mm"
   height="297mm"
   viewBox="0 0 408 297"
   version="1.1"
   id="svg8"
   inkscape:version="0.92.1 r"
   sodipodi:docname="bitwise-reconstruction.svg">
  <defs
     id="defs2" />
  <sodipodi:namedview
     id="base"
     pagecolor="#ffffff"
     bordercolor="#666666"
     borderopacity="1.0"
     inkscape:pageopacity="0.0"
     inkscape:pageshadow="2"
     inkscape:zoom="0.7"
     inkscape:cx="671.04742"
     inkscape:cy="587.73691"
     inkscape:document-units="mm"
     inkscape:current-layer="layer1"
     showgrid="false"
     inkscape:window-width="1920"
     inkscape:window-height="1043"
     inkscape:window-x="0"
     inkscape:window-y="18"
     inkscape:window-maximized="0" />
  <metadata
     id="metadata5">
    <rdf:RDF>
      <cc:Work
         rdf:about="">
        <dc:format>image/svg+xml</dc:format>
        <dc:type
           rdf:resource="http://purl.org/dc/dcmitype/StillImage" />
        <dc:title />
      </cc:Work>
    </rdf:RDF>
  </metadata>
  <g
     inkscape:label="Layer 1"
     inkscape:groupmode="layer"
     id="layer1">
    <text
       xml:space="preserve"
       style="font-style:normal;font-variant:normal;font-weight:normal;font-stretch:normal;font-size:10.58333302px;line-height:1.25;font-family:Cabin;-inkscape-font-specification:Cabin;letter-spacing:0px;word-spacing:0px;fill:#000000;fill-opacity:1;stroke:none;stroke-width:0.26458332"
       x="361.29266"
       y="79.442612"
       id="text4514"><tspan
         sodipodi:role="line"
         id="tspan4512"
         x="361.29266"
         y="79.442612"
         style="stroke-width:0.26458332">0</tspan></text>
    <text
       xml:space="preserve"
       style="font-style:normal;font-variant:normal;font-weight:normal;font-stretch:normal;font-size:10.58333302px;line-height:1.25;font-family:Cabin;-inkscape-font-specification:Cabin;letter-spacing:0px;word-spacing:0px;fill:#000000;fill-opacity:1;stroke:none;stroke-width:0.26458332"
       x="341.58472"
       y="79.442612"
       id="text4518"><tspan
         sodipodi:role="line"
         id="tspan4516"
         x="341.58472"
         y="79.442612"
         style="stroke-width:0.26458332">1</tspan></text>
    <text
       xml:space="preserve"
       style="font-style:normal;font-variant:normal;font-weight:normal;font-stretch:normal;font-size:10.58333302px;line-height:1.25;font-family:Cabin;-inkscape-font-specification:Cabin;letter-spacing:0px;word-spacing:0px;fill:#000000;fill-opacity:1;stroke:none;stroke-width:0.26458332"
       x="318.34372"
       y="79.527275"
       id="text4522"><tspan
         sodipodi:role="line"
         id="tspan4520"
         x="318.34372"
         y="79.527275"
         style="stroke-width:0.26458332">2</tspan></text>
    <text
       xml:space="preserve"
       style="font-style:normal;font-variant:normal;font-weight:normal;font-stretch:normal;font-size:10.58333302px;line-height:1.25;font-family:Cabin;-inkscape-font-specification:Cabin;letter-spacing:0px;word-spacing:0px;fill:#000000;fill-opacity:1;stroke:none;stroke-width:0.26458332"
       x="296.461"
       y="79.442612"
       id="text4526"><tspan
         sodipodi:role="line"
         id="tspan4524"
         x="296.461"
         y="79.442612"
         style="stroke-width:0.26458332">3</tspan></text>
    <text
       xml:space="preserve"
       style="font-style:normal;font-variant:normal;font-weight:normal;font-stretch:normal;font-size:10.58333302px;line-height:1.25;font-family:Cabin;-inkscape-font-specification:Cabin;letter-spacing:0px;word-spacing:0px;fill:#000000;fill-opacity:1;stroke:none;stroke-width:0.26458332"
       x="274.26273"
       y="79.442612"
       id="text4530"><tspan
         sodipodi:role="line"
         id="tspan4528"
         x="274.26273"
         y="79.442612"
         style="stroke-width:0.26458332">4</tspan></text>
    <text
       xml:space="preserve"
       style="font-style:normal;font-variant:normal;font-weight:normal;font-stretch:normal;font-size:10.58333302px;line-height:1.25;font-family:Cabin;-inkscape-font-specification:Cabin;letter-spacing:0px;word-spacing:0px;fill:#000000;fill-opacity:1;stroke:none;stroke-width:0.26458332"
       x="252.47488"
       y="79.36853"
       id="text4534"><tspan
         sodipodi:role="line"
         id="tspan4532"
         x="252.47488"
         y="79.36853"
         style="stroke-width:0.26458332">5</tspan></text>
    <text
       xml:space="preserve"
       style="font-style:normal;font-variant:normal;font-weight:normal;font-stretch:normal;font-size:10.58333302px;line-height:1.25;font-family:Cabin;-inkscape-font-specification:Cabin;letter-spacing:0px;word-spacing:0px;fill:#000000;fill-opacity:1;stroke:none;stroke-width:0.26458332"
       x="230.32916"
       y="79.442612"
       id="text4538"><tspan
         sodipodi:role="line"
         id="tspan4536"
         x="230.32916"
         y="79.442612"
         style="stroke-width:0.26458332">6</tspan></text>
    <text
       xml:space="preserve"
       style="font-style:normal;font-variant:normal;font-weight:normal;font-stretch:normal;font-size:10.58333302px;line-height:1.25;font-family:Cabin;-inkscape-font-specification:Cabin;letter-spacing:0px;word-spacing:0px;fill:#000000;fill-opacity:1;stroke:none;stroke-width:0.26458332"
       x="208.69496"
       y="79.442612"
       id="text4542"><tspan
         sodipodi:role="line"
         id="tspan4540"
         x="208.69496"
         y="79.442612"
         style="stroke-width:0.26458332">7</tspan></text>
    <flowRoot
       xml:space="preserve"
       id="flowRoot4571"
       style="font-style:normal;font-variant:normal;font-weight:normal;font-stretch:normal;font-size:40px;line-height:1.25;font-family:Cabin;-inkscape-font-specification:Cabin;letter-spacing:0px;word-spacing:0px;fill:#000000;fill-opacity:1;stroke:none"
       transform="scale(0.26458333)"><flowRegion
         id="flowRegion4573"><rect
           id="rect4575"
           width="667.19171"
           height="78.571449"
           x="85.714287"
           y="239.66254" /></flowRegion><flowPara
         id="flowPara4577" /></flowRoot>    <text
       id="text4585"
       y="103.5421"
       x="46.601192"
       style="font-style:normal;font-variant:normal;font-weight:normal;font-stretch:normal;font-size:23.94680977px;line-height:1.25;font-family:Cabin;-inkscape-font-specification:Cabin;letter-spacing:0px;word-spacing:0px;fill:#000000;fill-opacity:1;stroke:none;stroke-width:0.26458332"
       xml:space="preserve"><tspan
         style="stroke-width:0.26458332"
         y="103.5421"
         x="46.601192"
         id="tspan4583"
         sodipodi:role="line">0</tspan></text>
    <text
       xml:space="preserve"
       style="font-style:normal;font-variant:normal;font-weight:normal;font-stretch:normal;font-size:23.94680977px;line-height:1.25;font-family:Cabin;-inkscape-font-specification:Cabin;letter-spacing:0px;word-spacing:0px;fill:#000000;fill-opacity:1;stroke:none;stroke-width:0.26458332"
       x="116.62582"
       y="103.5421"
       id="text4593"><tspan
         sodipodi:role="line"
         id="tspan4591"
         x="116.62582"
         y="103.5421"
         style="stroke-width:0.26458332">1</tspan></text>
    <text
       id="text4597"
       y="103.5421"
       x="183.17595"
       style="font-style:normal;font-variant:normal;font-weight:normal;font-stretch:normal;font-size:23.94680977px;line-height:1.25;font-family:Cabin;-inkscape-font-specification:Cabin;letter-spacing:0px;word-spacing:0px;fill:#000000;fill-opacity:1;stroke:none;stroke-width:0.26458332"
       xml:space="preserve"><tspan
         style="stroke-width:0.26458332"
         y="103.5421"
         x="183.17595"
         id="tspan4595"
         sodipodi:role="line">1</tspan></text>
    <text
       xml:space="preserve"
       style="font-style:normal;font-variant:normal;font-weight:normal;font-stretch:normal;font-size:23.94680977px;line-height:1.25;font-family:Cabin;-inkscape-font-specification:Cabin;letter-spacing:0px;word-spacing:0px;fill:#000000;fill-opacity:1;stroke:none;stroke-width:0.26458332"
       x="89.898857"
       y="103.5421"
       id="text4601"><tspan
         sodipodi:role="line"
         id="tspan4599"
         x="89.898857"
         y="103.5421"
         style="stroke-width:0.26458332">0</tspan></text>
    <text
       xml:space="preserve"
       style="font-style:normal;font-variant:normal;font-weight:normal;font-stretch:normal;font-size:23.94680977px;line-height:1.25;font-family:Cabin;-inkscape-font-specification:Cabin;letter-spacing:0px;word-spacing:0px;fill:#000000;fill-opacity:1;stroke:none;stroke-width:0.26458332"
       x="134.26562"
       y="103.5421"
       id="text4605"><tspan
         sodipodi:role="line"
         id="tspan4603"
         x="134.26562"
         y="103.5421"
         style="stroke-width:0.26458332">0</tspan></text>
    <text
       id="text4609"
       y="103.5421"
       x="156.44899"
       style="font-style:normal;font-variant:normal;font-weight:normal;font-stretch:normal;font-size:23.94680977px;line-height:1.25;font-family:Cabin;-inkscape-font-specification:Cabin;letter-spacing:0px;word-spacing:0px;fill:#000000;fill-opacity:1;stroke:none;stroke-width:0.26458332"
       xml:space="preserve"><tspan
         style="stroke-width:0.26458332"
         y="103.5421"
         x="156.44899"
         id="tspan4607"
         sodipodi:role="line">0</tspan></text>
    <text
       xml:space="preserve"
       style="font-style:normal;font-variant:normal;font-weight:normal;font-stretch:normal;font-size:10.58333302px;line-height:1.25;font-family:Cabin;-inkscape-font-specification:Cabin;letter-spacing:0px;word-spacing:0px;fill:#000000;fill-opacity:1;stroke:none;stroke-width:0.26458332"
       x="27.819052"
       y="64.54464"
       id="text4727"><tspan
         sodipodi:role="line"
         id="tspan4725"
         x="27.819052"
         y="64.54464"
         style="stroke-width:0.26458332">MSBit</tspan></text>
    <text
       id="text4731"
       y="66.904205"
       x="348.47961"
       style="font-style:normal;font-variant:normal;font-weight:normal;font-stretch:normal;font-size:10.58333302px;line-height:1.25;font-family:Cabin;-inkscape-font-specification:Cabin;letter-spacing:0px;word-spacing:0px;fill:#000000;fill-opacity:1;stroke:none;stroke-width:0.26458332"
       xml:space="preserve"><tspan
         style="stroke-width:0.26458332"
         y="66.904205"
         x="348.47961"
         id="tspan4729"
         sodipodi:role="line">LSBit</tspan></text>
    <rect
       style="opacity:1;fill:none;fill-opacity:1;fill-rule:nonzero;stroke:#fe0000;stroke-width:1;stroke-miterlimit:4;stroke-dasharray:none;stroke-opacity:1"
       id="rect4488"
       width="21.922617"
       height="21.922617"
       x="22.225"
       y="84.199409" />
    <rect
       y="84.199409"
       x="44.144928"
       height="21.922617"
       width="21.922617"
       id="rect4490"
       style="opacity:1;fill:none;fill-opacity:1;fill-rule:nonzero;stroke:#fe0000;stroke-width:1;stroke-miterlimit:4;stroke-dasharray:none;stroke-opacity:1" />
    <rect
       y="84.199409"
       x="66.073669"
       height="21.922617"
       width="21.922617"
       id="rect4492"
       style="opacity:1;fill:none;fill-opacity:1;fill-rule:nonzero;stroke:#fe0000;stroke-width:1;stroke-miterlimit:4;stroke-dasharray:none;stroke-opacity:1" />
    <rect
       style="opacity:1;fill:none;fill-opacity:1;fill-rule:nonzero;stroke:#fe0000;stroke-width:1;stroke-miterlimit:4;stroke-dasharray:none;stroke-opacity:1"
       id="rect4494"
       width="21.922617"
       height="21.922617"
       x="87.993591"
       y="84.199409" />
    <rect
       y="84.199409"
       x="109.92766"
       height="21.922617"
       width="21.922617"
       id="rect4502"
       style="opacity:1;fill:none;fill-opacity:1;fill-rule:nonzero;stroke:#fe0000;stroke-width:1;stroke-miterlimit:4;stroke-dasharray:none;stroke-opacity:1" />
    <rect
       style="opacity:1;fill:none;fill-opacity:1;fill-rule:nonzero;stroke:#fe0000;stroke-width:1;stroke-miterlimit:4;stroke-dasharray:none;stroke-opacity:1"
       id="rect4504"
       width="21.922617"
       height="21.922617"
       x="131.8476"
       y="84.199409" />
    <rect
       style="opacity:1;fill:none;fill-opacity:1;fill-rule:nonzero;stroke:#fe0000;stroke-width:1;stroke-miterlimit:4;stroke-dasharray:none;stroke-opacity:1"
       id="rect4506"
       width="21.922617"
       height="21.922617"
       x="153.77634"
       y="84.199409" />
    <rect
       y="84.199409"
       x="175.69626"
       height="21.922617"
       width="21.922617"
       id="rect4508"
       style="opacity:1;fill:none;fill-opacity:1;fill-rule:nonzero;stroke:#fe0000;stroke-width:1;stroke-miterlimit:4;stroke-dasharray:none;stroke-opacity:1" />
    <g
       transform="translate(176.97576,-0.005373)"
       id="g4830"
       style="stroke:#009aff;stroke-opacity:1">
      <rect
         y="84.199409"
         x="23.8125"
         height="21.922617"
         width="21.922617"
         id="rect4814"
         style="opacity:1;fill:none;fill-opacity:1;fill-rule:nonzero;stroke:#009aff;stroke-width:1;stroke-miterlimit:4;stroke-dasharray:none;stroke-opacity:1" />
      <rect
         style="opacity:1;fill:none;fill-opacity:1;fill-rule:nonzero;stroke:#009aff;stroke-width:1;stroke-miterlimit:4;stroke-dasharray:none;stroke-opacity:1"
         id="rect4816"
         width="21.922617"
         height="21.922617"
         x="45.73243"
         y="84.199409" />
      <rect
         style="opacity:1;fill:none;fill-opacity:1;fill-rule:nonzero;stroke:#009aff;stroke-width:1;stroke-miterlimit:4;stroke-dasharray:none;stroke-opacity:1"
         id="rect4818"
         width="21.922617"
         height="21.922617"
         x="67.661171"
         y="84.199409" />
      <rect
         y="84.199409"
         x="89.581093"
         height="21.922617"
         width="21.922617"
         id="rect4820"
         style="opacity:1;fill:none;fill-opacity:1;fill-rule:nonzero;stroke:#009aff;stroke-width:1;stroke-miterlimit:4;stroke-dasharray:none;stroke-opacity:1" />
      <rect
         style="opacity:1;fill:none;fill-opacity:1;fill-rule:nonzero;stroke:#009aff;stroke-width:1;stroke-miterlimit:4;stroke-dasharray:none;stroke-opacity:1"
         id="rect4822"
         width="21.922617"
         height="21.922617"
         x="111.51516"
         y="84.199409" />
      <rect
         y="84.199409"
         x="133.43509"
         height="21.922617"
         width="21.922617"
         id="rect4824"
         style="opacity:1;fill:none;fill-opacity:1;fill-rule:nonzero;stroke:#009aff;stroke-width:1;stroke-miterlimit:4;stroke-dasharray:none;stroke-opacity:1" />
      <rect
         y="84.199409"
         x="155.36383"
         height="21.922617"
         width="21.922617"
         id="rect4826"
         style="opacity:1;fill:none;fill-opacity:1;fill-rule:nonzero;stroke:#009aff;stroke-width:1;stroke-miterlimit:4;stroke-dasharray:none;stroke-opacity:1" />
      <rect
         style="opacity:1;fill:none;fill-opacity:1;fill-rule:nonzero;stroke:#009aff;stroke-width:1;stroke-miterlimit:4;stroke-dasharray:none;stroke-opacity:1"
         id="rect4828"
         width="21.922617"
         height="21.922617"
         x="177.28375"
         y="84.199409" />
    </g>
    <g
       transform="translate(0,51.329136)"
       id="g4926">
      <g
         id="g4906">
        <rect
           style="opacity:1;fill:none;fill-opacity:1;fill-rule:nonzero;stroke:#000000;stroke-width:1;stroke-miterlimit:4;stroke-dasharray:none;stroke-opacity:1"
           id="rect4890"
           width="21.922617"
           height="21.922617"
           x="23.8125"
           y="84.199409" />
        <rect
           y="84.199409"
           x="45.73243"
           height="21.922617"
           width="21.922617"
           id="rect4892"
           style="opacity:1;fill:none;fill-opacity:1;fill-rule:nonzero;stroke:#000000;stroke-width:1;stroke-miterlimit:4;stroke-dasharray:none;stroke-opacity:1" />
        <rect
           y="84.199409"
           x="67.661171"
           height="21.922617"
           width="21.922617"
           id="rect4894"
           style="opacity:1;fill:none;fill-opacity:1;fill-rule:nonzero;stroke:#000000;stroke-width:1;stroke-miterlimit:4;stroke-dasharray:none;stroke-opacity:1" />
        <rect
           style="opacity:1;fill:none;fill-opacity:1;fill-rule:nonzero;stroke:#000000;stroke-width:1;stroke-miterlimit:4;stroke-dasharray:none;stroke-opacity:1"
           id="rect4896"
           width="21.922617"
           height="21.922617"
           x="89.581093"
           y="84.199409" />
        <rect
           y="84.199409"
           x="111.51516"
           height="21.922617"
           width="21.922617"
           id="rect4898"
           style="opacity:1;fill:none;fill-opacity:1;fill-rule:nonzero;stroke:#000000;stroke-width:1;stroke-miterlimit:4;stroke-dasharray:none;stroke-opacity:1" />
        <rect
           style="opacity:1;fill:none;fill-opacity:1;fill-rule:nonzero;stroke:#000000;stroke-width:1;stroke-miterlimit:4;stroke-dasharray:none;stroke-opacity:1"
           id="rect4900"
           width="21.922617"
           height="21.922617"
           x="133.43509"
           y="84.199409" />
        <rect
           style="opacity:1;fill:none;fill-opacity:1;fill-rule:nonzero;stroke:#000000;stroke-width:1;stroke-miterlimit:4;stroke-dasharray:none;stroke-opacity:1"
           id="rect4902"
           width="21.922617"
           height="21.922617"
           x="155.36383"
           y="84.199409" />
        <rect
           y="84.199409"
           x="177.28375"
           height="21.922617"
           width="21.922617"
           id="rect4904"
           style="opacity:1;fill:none;fill-opacity:1;fill-rule:nonzero;stroke:#000000;stroke-width:1;stroke-miterlimit:4;stroke-dasharray:none;stroke-opacity:1" />
      </g>
      <g
         id="g4924"
         transform="translate(175.38825,-0.005373)">
        <rect
           style="opacity:1;fill:none;fill-opacity:1;fill-rule:nonzero;stroke:#000000;stroke-width:1;stroke-miterlimit:4;stroke-dasharray:none;stroke-opacity:1"
           id="rect4908"
           width="21.922617"
           height="21.922617"
           x="23.8125"
           y="84.199409" />
        <rect
           y="84.199409"
           x="45.73243"
           height="21.922617"
           width="21.922617"
           id="rect4910"
           style="opacity:1;fill:none;fill-opacity:1;fill-rule:nonzero;stroke:#000000;stroke-width:1;stroke-miterlimit:4;stroke-dasharray:none;stroke-opacity:1" />
        <rect
           y="84.199409"
           x="67.661171"
           height="21.922617"
           width="21.922617"
           id="rect4912"
           style="opacity:1;fill:none;fill-opacity:1;fill-rule:nonzero;stroke:#000000;stroke-width:1;stroke-miterlimit:4;stroke-dasharray:none;stroke-opacity:1" />
        <rect
           style="opacity:1;fill:none;fill-opacity:1;fill-rule:nonzero;stroke:#000000;stroke-width:1;stroke-miterlimit:4;stroke-dasharray:none;stroke-opacity:1"
           id="rect4914"
           width="21.922617"
           height="21.922617"
           x="89.581093"
           y="84.199409" />
        <rect
           y="84.199409"
           x="111.51516"
           height="21.922617"
           width="21.922617"
           id="rect4916"
           style="opacity:1;fill:none;fill-opacity:1;fill-rule:nonzero;stroke:#000000;stroke-width:1;stroke-miterlimit:4;stroke-dasharray:none;stroke-opacity:1" />
        <rect
           style="opacity:1;fill:none;fill-opacity:1;fill-rule:nonzero;stroke:#000000;stroke-width:1;stroke-miterlimit:4;stroke-dasharray:none;stroke-opacity:1"
           id="rect4918"
           width="21.922617"
           height="21.922617"
           x="133.43509"
           y="84.199409" />
        <rect
           style="opacity:1;fill:none;fill-opacity:1;fill-rule:nonzero;stroke:#000000;stroke-width:1;stroke-miterlimit:4;stroke-dasharray:none;stroke-opacity:1"
           id="rect4920"
           width="21.922617"
           height="21.922617"
           x="155.36383"
           y="84.199409" />
        <rect
           y="84.199409"
           x="177.28375"
           height="21.922617"
           width="21.922617"
           id="rect4922"
           style="opacity:1;fill:none;fill-opacity:1;fill-rule:nonzero;stroke:#000000;stroke-width:1;stroke-miterlimit:4;stroke-dasharray:none;stroke-opacity:1" />
      </g>
    </g>
    <text
       id="text4930"
       y="103.5421"
       x="68.73217"
       style="font-style:normal;font-variant:normal;font-weight:normal;font-stretch:normal;font-size:23.94680977px;line-height:1.25;font-family:Cabin;-inkscape-font-specification:Cabin;letter-spacing:0px;word-spacing:0px;fill:#000000;fill-opacity:1;stroke:none;stroke-width:0.26458332"
       xml:space="preserve"><tspan
         style="stroke-width:0.26458332"
         y="103.5421"
         x="68.73217"
         id="tspan4928"
         sodipodi:role="line">0</tspan></text>
    <text
       xml:space="preserve"
       style="font-style:normal;font-variant:normal;font-weight:normal;font-stretch:normal;font-size:23.94680977px;line-height:1.25;font-family:Cabin;-inkscape-font-specification:Cabin;letter-spacing:0px;word-spacing:0px;fill:#000000;fill-opacity:1;stroke:none;stroke-width:0.26458332"
       x="25.340462"
       y="103.5421"
       id="text4934"><tspan
         sodipodi:role="line"
         id="tspan4932"
         x="25.340462"
         y="103.5421"
         style="stroke-width:0.26458332">0</tspan></text>
    <text
       xml:space="preserve"
       style="font-style:normal;font-variant:normal;font-weight:normal;font-stretch:normal;font-size:23.94680977px;line-height:1.25;font-family:Cabin;-inkscape-font-specification:Cabin;letter-spacing:0px;word-spacing:0px;fill:#000000;fill-opacity:1;stroke:none;stroke-width:0.26458332"
       x="229.21283"
       y="103.5421"
       id="text4942"><tspan
         sodipodi:role="line"
         id="tspan4940"
         x="229.21283"
         y="103.5421"
         style="stroke-width:0.26458332">1</tspan></text>
    <text
       id="text4946"
       y="103.5421"
       x="250.37921"
       style="font-style:normal;font-variant:normal;font-weight:normal;font-stretch:normal;font-size:23.94680977px;line-height:1.25;font-family:Cabin;-inkscape-font-specification:Cabin;letter-spacing:0px;word-spacing:0px;fill:#000000;fill-opacity:1;stroke:none;stroke-width:0.26458332"
       xml:space="preserve"><tspan
         style="stroke-width:0.26458332"
         y="103.5421"
         x="250.37921"
         id="tspan4944"
         sodipodi:role="line">1</tspan></text>
    <text
       xml:space="preserve"
       style="font-style:normal;font-variant:normal;font-weight:normal;font-stretch:normal;font-size:23.94680977px;line-height:1.25;font-family:Cabin;-inkscape-font-specification:Cabin;letter-spacing:0px;word-spacing:0px;fill:#000000;fill-opacity:1;stroke:none;stroke-width:0.26458332"
       x="294.82974"
       y="103.5421"
       id="text4950"><tspan
         sodipodi:role="line"
         id="tspan4948"
         x="294.82974"
         y="103.5421"
         style="stroke-width:0.26458332">1</tspan></text>
    <text
       id="text4954"
       y="103.5421"
       x="338.22208"
       style="font-style:normal;font-variant:normal;font-weight:normal;font-stretch:normal;font-size:23.94680977px;line-height:1.25;font-family:Cabin;-inkscape-font-specification:Cabin;letter-spacing:0px;word-spacing:0px;fill:#000000;fill-opacity:1;stroke:none;stroke-width:0.26458332"
       xml:space="preserve"><tspan
         style="stroke-width:0.26458332"
         y="103.5421"
         x="338.22208"
         id="tspan4952"
         sodipodi:role="line">1</tspan></text>
    <text
       xml:space="preserve"
       style="font-style:normal;font-variant:normal;font-weight:normal;font-stretch:normal;font-size:23.94680977px;line-height:1.25;font-family:Cabin;-inkscape-font-specification:Cabin;letter-spacing:0px;word-spacing:0px;fill:#000000;fill-opacity:1;stroke:none;stroke-width:0.26458332"
       x="362.03494"
       y="103.5421"
       id="text4958"><tspan
         sodipodi:role="line"
         id="tspan4956"
         x="362.03494"
         y="103.5421"
         style="stroke-width:0.26458332">1</tspan></text>
    <text
       id="text5030"
       y="103.5421"
       x="202.52797"
       style="font-style:normal;font-variant:normal;font-weight:normal;font-stretch:normal;font-size:23.94680977px;line-height:1.25;font-family:Cabin;-inkscape-font-specification:Cabin;letter-spacing:0px;word-spacing:0px;fill:#000000;fill-opacity:1;stroke:none;stroke-width:0.26458332"
       xml:space="preserve"><tspan
         style="stroke-width:0.26458332"
         y="103.5421"
         x="202.52797"
         id="tspan5028"
         sodipodi:role="line">0</tspan></text>
    <text
       xml:space="preserve"
       style="font-style:normal;font-variant:normal;font-weight:normal;font-stretch:normal;font-size:23.94680977px;line-height:1.25;font-family:Cabin;-inkscape-font-specification:Cabin;letter-spacing:0px;word-spacing:0px;fill:#000000;fill-opacity:1;stroke:none;stroke-width:0.26458332"
       x="269.20291"
       y="103.5421"
       id="text5034"><tspan
         sodipodi:role="line"
         id="tspan5032"
         x="269.20291"
         y="103.5421"
         style="stroke-width:0.26458332">0</tspan></text>
    <text
       id="text5038"
       y="103.5421"
       x="313.12378"
       style="font-style:normal;font-variant:normal;font-weight:normal;font-stretch:normal;font-size:23.94680977px;line-height:1.25;font-family:Cabin;-inkscape-font-specification:Cabin;letter-spacing:0px;word-spacing:0px;fill:#000000;fill-opacity:1;stroke:none;stroke-width:0.26458332"
       xml:space="preserve"><tspan
         style="stroke-width:0.26458332"
         y="103.5421"
         x="313.12378"
         id="tspan5036"
         sodipodi:role="line">0</tspan></text>
    <text
       xml:space="preserve"
       style="font-style:normal;font-variant:normal;font-weight:normal;font-stretch:normal;font-size:23.94680977px;line-height:1.25;font-family:Cabin;-inkscape-font-specification:Cabin;letter-spacing:0px;word-spacing:0px;fill:#000000;fill-opacity:1;stroke:none;stroke-width:0.26458332"
       x="48.188694"
       y="154.87161"
       id="text5042"><tspan
         sodipodi:role="line"
         id="tspan5040"
         x="48.188694"
         y="154.87161"
         style="stroke-width:0.26458332">0</tspan></text>
    <text
       id="text5046"
       y="154.87161"
       x="118.21331"
       style="font-style:normal;font-variant:normal;font-weight:normal;font-stretch:normal;font-size:23.94680977px;line-height:1.25;font-family:Cabin;-inkscape-font-specification:Cabin;letter-spacing:0px;word-spacing:0px;fill:#000000;fill-opacity:1;stroke:none;stroke-width:0.26458332"
       xml:space="preserve"><tspan
         style="stroke-width:0.26458332"
         y="154.87161"
         x="118.21331"
         id="tspan5044"
         sodipodi:role="line">1</tspan></text>
    <text
       xml:space="preserve"
       style="font-style:normal;font-variant:normal;font-weight:normal;font-stretch:normal;font-size:23.94680977px;line-height:1.25;font-family:Cabin;-inkscape-font-specification:Cabin;letter-spacing:0px;word-spacing:0px;fill:#000000;fill-opacity:1;stroke:none;stroke-width:0.26458332"
       x="184.76343"
       y="154.87161"
       id="text5050"><tspan
         sodipodi:role="line"
         id="tspan5048"
         x="184.76343"
         y="154.87161"
         style="stroke-width:0.26458332">1</tspan></text>
    <text
       id="text5054"
       y="154.87161"
       x="91.486359"
       style="font-style:normal;font-variant:normal;font-weight:normal;font-stretch:normal;font-size:23.94680977px;line-height:1.25;font-family:Cabin;-inkscape-font-specification:Cabin;letter-spacing:0px;word-spacing:0px;fill:#000000;fill-opacity:1;stroke:none;stroke-width:0.26458332"
       xml:space="preserve"><tspan
         style="stroke-width:0.26458332"
         y="154.87161"
         x="91.486359"
         id="tspan5052"
         sodipodi:role="line">0</tspan></text>
    <text
       id="text5058"
       y="154.87161"
       x="135.8531"
       style="font-style:normal;font-variant:normal;font-weight:normal;font-stretch:normal;font-size:23.94680977px;line-height:1.25;font-family:Cabin;-inkscape-font-specification:Cabin;letter-spacing:0px;word-spacing:0px;fill:#000000;fill-opacity:1;stroke:none;stroke-width:0.26458332"
       xml:space="preserve"><tspan
         style="stroke-width:0.26458332"
         y="154.87161"
         x="135.8531"
         id="tspan5056"
         sodipodi:role="line">0</tspan></text>
    <text
       xml:space="preserve"
       style="font-style:normal;font-variant:normal;font-weight:normal;font-stretch:normal;font-size:23.94680977px;line-height:1.25;font-family:Cabin;-inkscape-font-specification:Cabin;letter-spacing:0px;word-spacing:0px;fill:#000000;fill-opacity:1;stroke:none;stroke-width:0.26458332"
       x="158.03647"
       y="154.87161"
       id="text5062"><tspan
         sodipodi:role="line"
         id="tspan5060"
         x="158.03647"
         y="154.87161"
         style="stroke-width:0.26458332">0</tspan></text>
    <text
       xml:space="preserve"
       style="font-style:normal;font-variant:normal;font-weight:normal;font-stretch:normal;font-size:23.94680977px;line-height:1.25;font-family:Cabin;-inkscape-font-specification:Cabin;letter-spacing:0px;word-spacing:0px;fill:#000000;fill-opacity:1;stroke:none;stroke-width:0.26458332"
       x="70.319672"
       y="154.87161"
       id="text5066"><tspan
         sodipodi:role="line"
         id="tspan5064"
         x="70.319672"
         y="154.87161"
         style="stroke-width:0.26458332">0</tspan></text>
    <text
       id="text5070"
       y="154.87161"
       x="26.927963"
       style="font-style:normal;font-variant:normal;font-weight:normal;font-stretch:normal;font-size:23.94680977px;line-height:1.25;font-family:Cabin;-inkscape-font-specification:Cabin;letter-spacing:0px;word-spacing:0px;fill:#000000;fill-opacity:1;stroke:none;stroke-width:0.26458332"
       xml:space="preserve"><tspan
         style="stroke-width:0.26458332"
         y="154.87161"
         x="26.927963"
         id="tspan5068"
         sodipodi:role="line">0</tspan></text>
    <text
       id="text5074"
       y="154.87161"
       x="227.62535"
       style="font-style:normal;font-variant:normal;font-weight:normal;font-stretch:normal;font-size:23.94680977px;line-height:1.25;font-family:Cabin;-inkscape-font-specification:Cabin;letter-spacing:0px;word-spacing:0px;fill:#000000;fill-opacity:1;stroke:none;stroke-width:0.26458332"
       xml:space="preserve"><tspan
         style="stroke-width:0.26458332"
         y="154.87161"
         x="227.62535"
         id="tspan5072"
         sodipodi:role="line">1</tspan></text>
    <text
       xml:space="preserve"
       style="font-style:normal;font-variant:normal;font-weight:normal;font-stretch:normal;font-size:23.94680977px;line-height:1.25;font-family:Cabin;-inkscape-font-specification:Cabin;letter-spacing:0px;word-spacing:0px;fill:#000000;fill-opacity:1;stroke:none;stroke-width:0.26458332"
       x="248.79173"
       y="154.87161"
       id="text5078"><tspan
         sodipodi:role="line"
         id="tspan5076"
         x="248.79173"
         y="154.87161"
         style="stroke-width:0.26458332">1</tspan></text>
    <text
       id="text5082"
       y="154.87161"
       x="293.24222"
       style="font-style:normal;font-variant:normal;font-weight:normal;font-stretch:normal;font-size:23.94680977px;line-height:1.25;font-family:Cabin;-inkscape-font-specification:Cabin;letter-spacing:0px;word-spacing:0px;fill:#000000;fill-opacity:1;stroke:none;stroke-width:0.26458332"
       xml:space="preserve"><tspan
         style="stroke-width:0.26458332"
         y="154.87161"
         x="293.24222"
         id="tspan5080"
         sodipodi:role="line">1</tspan></text>
    <text
       xml:space="preserve"
       style="font-style:normal;font-variant:normal;font-weight:normal;font-stretch:normal;font-size:23.94680977px;line-height:1.25;font-family:Cabin;-inkscape-font-specification:Cabin;letter-spacing:0px;word-spacing:0px;fill:#000000;fill-opacity:1;stroke:none;stroke-width:0.26458332"
       x="336.63455"
       y="154.87161"
       id="text5086"><tspan
         sodipodi:role="line"
         id="tspan5084"
         x="336.63455"
         y="154.87161"
         style="stroke-width:0.26458332">1</tspan></text>
    <text
       id="text5090"
       y="154.87161"
       x="360.44742"
       style="font-style:normal;font-variant:normal;font-weight:normal;font-stretch:normal;font-size:23.94680977px;line-height:1.25;font-family:Cabin;-inkscape-font-specification:Cabin;letter-spacing:0px;word-spacing:0px;fill:#000000;fill-opacity:1;stroke:none;stroke-width:0.26458332"
       xml:space="preserve"><tspan
         style="stroke-width:0.26458332"
         y="154.87161"
         x="360.44742"
         id="tspan5088"
         sodipodi:role="line">1</tspan></text>
    <text
       xml:space="preserve"
       style="font-style:normal;font-variant:normal;font-weight:normal;font-stretch:normal;font-size:23.94680977px;line-height:1.25;font-family:Cabin;-inkscape-font-specification:Cabin;letter-spacing:0px;word-spacing:0px;fill:#000000;fill-opacity:1;stroke:none;stroke-width:0.26458332"
       x="201.99881"
       y="155.40077"
       id="text5094"><tspan
         sodipodi:role="line"
         id="tspan5092"
         x="201.99881"
         y="155.40077"
         style="stroke-width:0.26458332">0</tspan></text>
    <text
       id="text5098"
       y="154.87161"
       x="267.61539"
       style="font-style:normal;font-variant:normal;font-weight:normal;font-stretch:normal;font-size:23.94680977px;line-height:1.25;font-family:Cabin;-inkscape-font-specification:Cabin;letter-spacing:0px;word-spacing:0px;fill:#000000;fill-opacity:1;stroke:none;stroke-width:0.26458332"
       xml:space="preserve"><tspan
         style="stroke-width:0.26458332"
         y="154.87161"
         x="267.61539"
         id="tspan5096"
         sodipodi:role="line">0</tspan></text>
    <text
       xml:space="preserve"
       style="font-style:normal;font-variant:normal;font-weight:normal;font-stretch:normal;font-size:23.94680977px;line-height:1.25;font-family:Cabin;-inkscape-font-specification:Cabin;letter-spacing:0px;word-spacing:0px;fill:#000000;fill-opacity:1;stroke:none;stroke-width:0.26458332"
       x="311.53625"
       y="154.87161"
       id="text5102"><tspan
         sodipodi:role="line"
         id="tspan5100"
         x="311.53625"
         y="154.87161"
         style="stroke-width:0.26458332">0</tspan></text>
    <text
       xml:space="preserve"
       style="font-style:normal;font-variant:normal;font-weight:normal;font-stretch:normal;font-size:10.58333302px;line-height:1.25;font-family:Cabin;-inkscape-font-specification:Cabin;letter-spacing:0px;word-spacing:0px;fill:#000000;fill-opacity:1;stroke:none;stroke-width:0.26458332"
       x="183.45082"
       y="79.442612"
       id="text5124"><tspan
         sodipodi:role="line"
         id="tspan5122"
         x="183.45082"
         y="79.442612"
         style="stroke-width:0.26458332">8</tspan></text>
    <text
       xml:space="preserve"
       style="font-style:normal;font-variant:normal;font-weight:normal;font-stretch:normal;font-size:10.58333302px;line-height:1.25;font-family:Cabin;-inkscape-font-specification:Cabin;letter-spacing:0px;word-spacing:0px;fill:#000000;fill-opacity:1;stroke:none;stroke-width:0.26458332"
       x="161.83252"
       y="79.516693"
       id="text5128"><tspan
         sodipodi:role="line"
         id="tspan5126"
         x="161.83252"
         y="79.516693"
         style="stroke-width:0.26458332">9</tspan></text>
    <text
       xml:space="preserve"
       style="font-style:normal;font-variant:normal;font-weight:normal;font-stretch:normal;font-size:10.58333302px;line-height:1.25;font-family:Cabin;-inkscape-font-specification:Cabin;letter-spacing:0px;word-spacing:0px;fill:#000000;fill-opacity:1;stroke:none;stroke-width:0.26458332"
       x="137.49516"
       y="79.442612"
       id="text5132"><tspan
         sodipodi:role="line"
         id="tspan5130"
         x="137.49516"
         y="79.442612"
         style="stroke-width:0.26458332">10</tspan></text>
    <text
       xml:space="preserve"
       style="font-style:normal;font-variant:normal;font-weight:normal;font-stretch:normal;font-size:10.58333302px;line-height:1.25;font-family:Cabin;-inkscape-font-specification:Cabin;letter-spacing:0px;word-spacing:0px;fill:#000000;fill-opacity:1;stroke:none;stroke-width:0.26458332"
       x="117.6813"
       y="79.442612"
       id="text5136"><tspan
         sodipodi:role="line"
         id="tspan5134"
         x="117.6813"
         y="79.442612"
         style="stroke-width:0.26458332">11</tspan></text>
    <text
       xml:space="preserve"
       style="font-style:normal;font-variant:normal;font-weight:normal;font-stretch:normal;font-size:10.58333302px;line-height:1.25;font-family:Cabin;-inkscape-font-specification:Cabin;letter-spacing:0px;word-spacing:0px;fill:#000000;fill-opacity:1;stroke:none;stroke-width:0.26458332"
       x="94.556618"
       y="79.521988"
       id="text5140"><tspan
         sodipodi:role="line"
         id="tspan5138"
         x="94.556618"
         y="79.521988"
         style="stroke-width:0.26458332">12</tspan></text>
    <text
       xml:space="preserve"
       style="font-style:normal;font-variant:normal;font-weight:normal;font-stretch:normal;font-size:10.58333302px;line-height:1.25;font-family:Cabin;-inkscape-font-specification:Cabin;letter-spacing:0px;word-spacing:0px;fill:#000000;fill-opacity:1;stroke:none;stroke-width:0.26458332"
       x="72.583778"
       y="79.442612"
       id="text5144"><tspan
         sodipodi:role="line"
         id="tspan5142"
         x="72.583778"
         y="79.442612"
         style="stroke-width:0.26458332">13</tspan></text>
    <text
       xml:space="preserve"
       style="font-style:normal;font-variant:normal;font-weight:normal;font-stretch:normal;font-size:10.58333302px;line-height:1.25;font-family:Cabin;-inkscape-font-specification:Cabin;letter-spacing:0px;word-spacing:0px;fill:#000000;fill-opacity:1;stroke:none;stroke-width:0.26458332"
       x="50.284618"
       y="79.442612"
       id="text5148"><tspan
         sodipodi:role="line"
         id="tspan5146"
         x="50.284618"
         y="79.442612"
         style="stroke-width:0.26458332">14</tspan></text>
    <text
       xml:space="preserve"
       style="font-style:normal;font-variant:normal;font-weight:normal;font-stretch:normal;font-size:10.58333302px;line-height:1.25;font-family:Cabin;-inkscape-font-specification:Cabin;letter-spacing:0px;word-spacing:0px;fill:#000000;fill-opacity:1;stroke:none;stroke-width:0.26458332"
       x="28.661024"
       y="79.36853"
       id="text5152"><tspan
         sodipodi:role="line"
         id="tspan5150"
         x="28.661024"
         y="79.36853"
         style="stroke-width:0.26458332">15</tspan></text>
    <text
       xml:space="preserve"
       style="font-style:normal;font-variant:normal;font-weight:normal;font-stretch:normal;font-size:55.94047546px;line-height:1.25;font-family:Cabin;-inkscape-font-specification:Cabin;letter-spacing:0px;word-spacing:0px;fill:#000000;fill-opacity:1;stroke:none;stroke-width:0.26458332"
       x="186.54657"
       y="138.24069"
       id="text5164"><tspan
         sodipodi:role="line"
         id="tspan5162"
         x="186.54657"
         y="138.24069"
         style="stroke-width:0.26458332">=</tspan></text>
    <path
       style="fill:none;stroke:#009aff;stroke-width:1;stroke-linecap:butt;stroke-linejoin:miter;stroke-miterlimit:4;stroke-dasharray:none;stroke-opacity:1"
       d="M 201.15893,60.386897 V 47.15773 h 175.30534 v 13.273056"
       id="path5177"
       inkscape:connector-curvature="0"
       sodipodi:nodetypes="cccc" />
    <path
       sodipodi:nodetypes="cccc"
       inkscape:connector-curvature="0"
       id="path5179"
       d="M 23.358863,60.386897 V 47.15773 H 198.66417 v 13.243341"
       style="fill:none;stroke:#fe0000;stroke-width:1;stroke-linecap:butt;stroke-linejoin:miter;stroke-miterlimit:4;stroke-dasharray:none;stroke-opacity:1" />
    <text
       xml:space="preserve"
       style="font-style:normal;font-variant:normal;font-weight:normal;font-stretch:normal;font-size:10.58333302px;line-height:1.25;font-family:Cabin;-inkscape-font-specification:Cabin;letter-spacing:0px;word-spacing:0px;fill:#000000;fill-opacity:1;stroke:none;stroke-width:0.26458332"
       x="84.666656"
       y="39.220215"
       id="text5183"><tspan
         sodipodi:role="line"
         id="tspan5181"
         x="84.666656"
         y="39.220215"
         style="stroke-width:0.26458332">MSByte (Byte A)</tspan></text>
    <text
       xml:space="preserve"
       style="font-style:normal;font-variant:normal;font-weight:normal;font-stretch:normal;font-size:10.58333302px;line-height:1.25;font-family:Cabin;-inkscape-font-specification:Cabin;letter-spacing:0px;word-spacing:0px;fill:#000000;fill-opacity:1;stroke:none;stroke-width:0.26458332"
       x="276.3006"
       y="39.976181"
       id="text5187"><tspan
         sodipodi:role="line"
         id="tspan5185"
         x="276.3006"
         y="39.976181"
         style="stroke-width:0.26458332">LSByte (Byte B)</tspan></text>
  </g>
</svg>
