<?xml version="1.0" encoding="UTF-8" standalone="no"?>
<!-- Created with Inkscape (http://www.inkscape.org/) -->

<svg
   xmlns:ns0="http://www.iki.fi/pav/software/textext/"
   xmlns:dc="http://purl.org/dc/elements/1.1/"
   xmlns:cc="http://creativecommons.org/ns#"
   xmlns:rdf="http://www.w3.org/1999/02/22-rdf-syntax-ns#"
   xmlns:svg="http://www.w3.org/2000/svg"
   xmlns="http://www.w3.org/2000/svg"
   xmlns:sodipodi="http://sodipodi.sourceforge.net/DTD/sodipodi-0.dtd"
   xmlns:inkscape="http://www.inkscape.org/namespaces/inkscape"
   width="104.13mm"
   height="12.930001mm"
   viewBox="0 0 104.13 12.930001"
   version="1.1"
   id="svg18190"
   inkscape:version="0.92.1 r"
   sodipodi:docname="tex_outputVoltage.svg">
  <sodipodi:namedview
     id="base"
     pagecolor="#ffffff"
     bordercolor="#666666"
     borderopacity="1.0"
     inkscape:pageopacity="0.0"
     inkscape:pageshadow="2"
     inkscape:zoom="0.98994949"
     inkscape:cx="50.624705"
     inkscape:cy="-28.380073"
     inkscape:document-units="mm"
     inkscape:current-layer="layer1"
     showgrid="false"
     inkscape:window-width="1920"
     inkscape:window-height="1043"
     inkscape:window-x="0"
     inkscape:window-y="18"
     inkscape:window-maximized="0"
     fit-margin-top="0"
     fit-margin-left="0"
     fit-margin-right="0"
     fit-margin-bottom="0" />
  <defs
     id="defs18184" />
  <metadata
     id="metadata18187">
    <rdf:RDF>
      <cc:Work
         rdf:about="">
        <dc:format>image/svg+xml</dc:format>
        <dc:type
           rdf:resource="http://purl.org/dc/dcmitype/StillImage" />
        <dc:title></dc:title>
      </cc:Work>
    </rdf:RDF>
  </metadata>
  <g
     id="layer1"
     inkscape:groupmode="layer"
     inkscape:label="Layer 1"
     transform="translate(-40.106059,-142.56954)">
    <g
       ns0:preamble="/home/michael/.config/inkscape/extensions/default_packages.tex"
       ns0:text="$V_{\\text{scaled}} = V_{\\text{output}} \\cdot \\frac{R2}{R1+R2}$"
       word-spacing="normal"
       letter-spacing="normal"
       font-size-adjust="none"
       font-stretch="normal"
       font-weight="normal"
       font-variant="normal"
       font-style="normal"
       stroke-miterlimit="10.433"
       xml:space="preserve"
       transform="matrix(1,0,0,-1,-109.16394,858.36954)"
       id="content"
       style="font-style:normal;font-variant:normal;font-weight:normal;font-stretch:normal;letter-spacing:normal;word-spacing:normal;text-anchor:start;fill:#000000;fill-opacity:1;fill-rule:evenodd;stroke:#000000;stroke-linecap:butt;stroke-linejoin:miter;stroke-miterlimit:10.43299961;stroke-dasharray:none;stroke-dashoffset:0;stroke-opacity:1"><path
         id="path18738"
         d="m 154.98,712.78 0.04,0.07 0.05,0.06 0.04,0.07 0.04,0.05 0.05,0.06 0.04,0.05 0.05,0.05 0.04,0.04 0.04,0.04 0.04,0.04 0.04,0.03 0.05,0.03 0.04,0.03 0.04,0.03 0.04,0.02 0.04,0.02 0.04,0.02 0.04,0.02 0.04,0.01 0.03,0.02 0.04,0.01 0.04,0.01 0.04,0.01 h 0.03 l 0.04,0.01 h 0.04 l 0.07,0.01 0.07,0.01 h 0.07 c 0.12,0.01 0.13,0.18 0.13,0.19 0,0.08 -0.05,0.12 -0.13,0.12 -0.26,0 -0.55,-0.03 -0.82,-0.03 -0.33,0 -0.67,0.03 -0.98,0.03 -0.06,0 -0.19,0 -0.19,-0.19 0,-0.11 0.09,-0.12 0.16,-0.12 0.26,-0.02 0.46,-0.12 0.46,-0.33 0,-0.15 -0.15,-0.36 -0.15,-0.37 l -3.07,-4.85 -0.67,5.25 c 0,0.17 0.22,0.3 0.68,0.3 0.14,0 0.25,0 0.25,0.2 0,0.09 -0.08,0.11 -0.14,0.11 -0.4,0 -0.82,-0.03 -1.23,-0.03 -0.18,0 -0.37,0.01 -0.55,0.01 -0.18,0 -0.37,0.02 -0.54,0.02 -0.07,0 -0.19,0 -0.19,-0.19 0,-0.12 0.09,-0.12 0.25,-0.12 0.56,0 0.57,-0.09 0.6,-0.34 l 0.79,-6.12 c 0.03,-0.2 0.07,-0.23 0.19,-0.23 0.16,0 0.2,0.05 0.28,0.18 z"
         inkscape:connector-curvature="0"
         style="fill:#000000;stroke-width:0" /><path
         id="path18740"
         d="m 157.17,708.55 v 0.01 0.01 0.01 0.01 0.01 0.01 0.01 0.01 0.01 0.01 0 0.01 0.01 0 l -0.01,0.01 v 0.01 0 0.01 h -0.01 v 0.01 0 h -0.01 v 0.01 h -0.01 v 0 l -0.01,0.01 v 0 h -0.01 v 0 h -0.01 v 0 0 h -0.01 v 0 h -0.01 v 0 0 c -0.04,0 -0.05,0 -0.14,-0.08 -0.02,-0.01 -0.09,-0.07 -0.13,-0.11 -0.21,0.15 -0.47,0.19 -0.73,0.19 -1,0 -1.24,-0.52 -1.24,-0.87 0,-0.22 0.1,-0.4 0.26,-0.54 0.27,-0.23 0.54,-0.28 0.97,-0.35 0.35,-0.06 0.92,-0.16 0.92,-0.62 0,-0.27 -0.19,-0.59 -0.87,-0.59 -0.67,0 -0.91,0.43 -1.04,0.91 -0.02,0.09 -0.03,0.11 -0.12,0.11 -0.12,0 -0.12,-0.04 -0.12,-0.18 v -0.86 c 0,-0.12 0,-0.18 0.1,-0.18 0.06,0 0.19,0.15 0.33,0.3 0.31,-0.28 0.69,-0.3 0.85,-0.3 0.91,0 1.25,0.49 1.25,0.98 0,0.27 -0.12,0.48 -0.3,0.64 -0.27,0.24 -0.59,0.3 -0.83,0.34 -0.56,0.1 -1.02,0.18 -1.02,0.55 0,0.22 0.19,0.5 0.86,0.5 0.81,0 0.84,-0.57 0.86,-0.77 0,-0.08 0.09,-0.08 0.11,-0.08 0.12,0 0.12,0.05 0.12,0.19 z"
         inkscape:connector-curvature="0"
         style="fill:#000000;stroke-width:0" /><path
         id="path18742"
         d="m 160.4,708.41 -0.01,-0.01 -0.01,-0.01 h -0.01 l -0.01,-0.01 h -0.01 l -0.01,-0.01 -0.01,-0.01 -0.01,-0.01 h -0.01 l -0.01,-0.01 -0.01,-0.01 -0.01,-0.01 v -0.01 l -0.01,-0.01 -0.01,-0.01 -0.01,-0.01 v -0.01 l -0.01,-0.01 v -0.01 l -0.01,-0.01 v -0.01 l -0.01,-0.01 v -0.01 -0.01 l -0.01,-0.01 v -0.01 -0.02 -0.01 -0.01 l -0.01,-0.01 v -0.02 -0.01 c 0,-0.19 0.14,-0.33 0.33,-0.33 0.19,0 0.34,0.12 0.34,0.34 0,0.62 -0.97,0.62 -1.17,0.62 -1.05,0 -1.7,-0.8 -1.7,-1.6 0,-0.87 0.75,-1.57 1.67,-1.57 1.04,0 1.28,0.82 1.28,0.91 0,0.08 -0.09,0.08 -0.12,0.08 -0.09,0 -0.09,-0.02 -0.13,-0.12 -0.15,-0.43 -0.52,-0.65 -0.95,-0.65 -0.48,0 -1.11,0.36 -1.11,1.36 0,0.88 0.43,1.37 1.08,1.37 0.09,0 0.43,0 0.68,-0.1 z"
         inkscape:connector-curvature="0"
         style="fill:#000000;stroke-width:0" /><path
         id="path18744"
         d="m 164.34,707.49 v 0.07 0.07 0.06 0.06 l -0.01,0.03 v 0.03 0.03 l -0.01,0.03 v 0.03 l -0.01,0.03 v 0.02 l -0.01,0.03 -0.01,0.03 -0.01,0.02 -0.01,0.03 -0.01,0.03 -0.01,0.02 -0.01,0.03 -0.02,0.02 -0.01,0.03 -0.02,0.02 -0.02,0.03 -0.02,0.02 -0.02,0.03 -0.03,0.02 -0.02,0.03 -0.03,0.02 -0.03,0.03 c -0.29,0.23 -0.62,0.34 -1.04,0.34 -0.66,0 -1.13,-0.25 -1.13,-0.67 0,-0.22 0.16,-0.34 0.34,-0.34 0.19,0 0.33,0.14 0.33,0.32 0,0.12 -0.06,0.27 -0.25,0.32 0.25,0.18 0.66,0.18 0.7,0.18 0.39,0 0.82,-0.26 0.82,-0.84 v -0.22 -0.18 -0.69 c 0,-0.67 -0.59,-0.85 -0.9,-0.85 -0.36,0 -0.7,0.23 -0.7,0.57 0,0.39 0.34,0.92 1.6,0.97 v 0.18 c -0.39,-0.01 -0.85,-0.03 -1.36,-0.22 -0.63,-0.23 -0.82,-0.61 -0.82,-0.93 0,-0.6 0.72,-0.77 1.22,-0.77 0.56,0 0.89,0.31 1.04,0.59 0.02,-0.29 0.21,-0.55 0.53,-0.55 0.02,0 0.7,0 0.7,0.66 v 0.38 h -0.24 v -0.38 c 0,-0.07 0,-0.4 -0.26,-0.4 -0.26,0 -0.26,0.33 -0.26,0.42 z"
         inkscape:connector-curvature="0"
         style="fill:#000000;stroke-width:0" /><path
         id="path18746"
         d="m 166.63,710.46 -1.04,-0.08 v -0.25 c 0.46,0 0.52,-0.05 0.52,-0.39 v -3.56 c 0,-0.3 -0.07,-0.3 -0.52,-0.3 v -0.25 c 0.01,0 0.5,0.03 0.78,0.03 0.26,0 0.52,-0.01 0.79,-0.03 v 0.25 c -0.46,0 -0.53,0 -0.53,0.3 z"
         inkscape:connector-curvature="0"
         style="fill:#000000;stroke-width:0" /><path
         id="path18748"
         d="m 170.53,707.22 h 0.01 0.01 0.01 0.02 0.01 0.01 0.01 0.01 0.01 0.01 v 0 h 0.01 l 0.01,0.01 h 0.01 v 0 l 0.01,0.01 v 0 h 0.01 v 0.01 h 0.01 v 0.01 l 0.01,0.01 v 0 0.01 0 0 0.01 0 l 0.01,0.01 v 0 0.01 0 0.01 0 0.01 0.01 0 0.01 0.01 0 0.01 c 0,0.61 -0.34,1.36 -1.38,1.36 -0.92,0 -1.62,-0.72 -1.62,-1.58 0,-0.88 0.78,-1.59 1.71,-1.59 0.94,0 1.29,0.75 1.29,0.91 0,0.02 -0.01,0.09 -0.12,0.09 -0.09,0 -0.1,-0.04 -0.12,-0.11 -0.22,-0.56 -0.75,-0.67 -1,-0.67 -0.33,0 -0.65,0.15 -0.86,0.41 -0.25,0.33 -0.26,0.76 -0.26,1.03 l 0.01,0.18 c 0.07,0.98 0.7,1.14 0.97,1.14 0.86,0 0.89,-0.97 0.89,-1.14 h -1.86 l -0.01,-0.18 z"
         inkscape:connector-curvature="0"
         style="fill:#000000;stroke-width:0" /><path
         id="path18750"
         d="m 173.48,710.38 v -0.25 c 0.47,0 0.53,-0.05 0.53,-0.39 v -1.44 c -0.26,0.25 -0.6,0.4 -0.98,0.4 l 0.03,-0.2 c 0.34,0 0.64,-0.15 0.83,-0.4 0.09,-0.11 0.09,-0.12 0.09,-0.25 v -1.49 c -0.19,-0.33 -0.54,-0.6 -1,-0.6 -0.39,0 -0.67,0.23 -0.81,0.43 -0.14,0.21 -0.22,0.48 -0.22,0.93 0,0.16 0,0.68 0.29,1.01 0.27,0.31 0.62,0.37 0.82,0.37 l -0.03,0.2 c -0.93,0 -1.72,-0.7 -1.72,-1.57 0,-0.87 0.74,-1.57 1.63,-1.57 0.57,0 0.92,0.31 1.04,0.43 v -0.43 l 1.07,0.07 v 0.25 c -0.46,0 -0.52,0.05 -0.52,0.39 v 4.19 z"
         inkscape:connector-curvature="0"
         style="fill:#000000;stroke-width:0" /><path
         id="path18752"
         d="m 185.51,710.37 h 0.03 0.03 0.02 l 0.02,0.01 h 0.01 0.02 0.01 0.02 0.01 l 0.01,0.01 h 0.02 0.01 l 0.01,0.01 h 0.02 l 0.01,0.01 h 0.01 l 0.01,0.01 0.01,0.01 0.01,0.01 0.01,0.01 v 0.01 h 0.01 v 0.01 h 0.01 v 0.01 0.01 0 l 0.01,0.01 v 0.01 0 0.01 0.01 0.01 l 0.01,0.01 v 0 0.01 0.01 c 0,0.2 -0.19,0.2 -0.33,0.2 h -5.98 c -0.14,0 -0.33,0 -0.33,-0.2 0,-0.2 0.19,-0.2 0.34,-0.2 z"
         inkscape:connector-curvature="0"
         style="fill:#000000;stroke-width:0" /><path
         id="path18754"
         d="m 185.52,708.45 h 0.01 0.01 0.03 0.03 0.01 0.02 0.01 0.02 0.01 l 0.01,0.01 h 0.02 0.01 l 0.01,0.01 h 0.01 l 0.02,0.01 h 0.01 l 0.01,0.01 h 0.01 l 0.01,0.01 0.01,0.01 0.01,0.01 v 0 l 0.01,0.01 v 0.01 0 l 0.01,0.01 v 0 0.01 0.01 h 0.01 v 0.01 0.01 0 0.01 0.01 l 0.01,0.01 v 0.01 0.01 0.01 c 0,0.19 -0.19,0.19 -0.34,0.19 h -5.96 c -0.15,0 -0.34,0 -0.34,-0.19 0,-0.2 0.19,-0.2 0.33,-0.2 z"
         inkscape:connector-curvature="0"
         style="fill:#000000;stroke-width:0" /><path
         id="path18756"
         d="m 195.44,712.78 0.04,0.07 0.05,0.06 0.04,0.07 0.05,0.05 0.04,0.06 0.04,0.05 0.05,0.05 0.04,0.04 0.04,0.04 0.04,0.04 0.05,0.03 0.04,0.03 0.04,0.03 0.04,0.03 0.04,0.02 0.04,0.02 0.04,0.02 0.04,0.02 0.04,0.01 0.03,0.02 0.04,0.01 0.04,0.01 0.04,0.01 h 0.04 l 0.03,0.01 h 0.04 l 0.07,0.01 0.07,0.01 h 0.07 c 0.12,0.01 0.13,0.18 0.13,0.19 0,0.08 -0.05,0.12 -0.13,0.12 -0.26,0 -0.55,-0.03 -0.82,-0.03 -0.32,0 -0.66,0.03 -0.98,0.03 -0.06,0 -0.19,0 -0.19,-0.19 0,-0.11 0.09,-0.12 0.16,-0.12 0.27,-0.02 0.46,-0.12 0.46,-0.33 0,-0.15 -0.15,-0.36 -0.15,-0.37 l -3.07,-4.85 -0.67,5.25 c 0,0.17 0.23,0.3 0.68,0.3 0.14,0 0.25,0 0.25,0.2 0,0.09 -0.08,0.11 -0.14,0.11 -0.39,0 -0.82,-0.03 -1.23,-0.03 -0.18,0 -0.37,0.01 -0.55,0.01 -0.18,0 -0.37,0.02 -0.54,0.02 -0.07,0 -0.19,0 -0.19,-0.19 0,-0.12 0.09,-0.12 0.25,-0.12 0.56,0 0.57,-0.09 0.6,-0.34 l 0.79,-6.12 c 0.03,-0.2 0.07,-0.23 0.2,-0.23 0.16,0 0.2,0.05 0.28,0.18 z"
         inkscape:connector-curvature="0"
         style="fill:#000000;stroke-width:0" /><path
         id="path18758"
         d="m 198.68,707.11 v 0.08 0.08 l -0.02,0.08 -0.01,0.08 -0.02,0.08 -0.02,0.07 -0.03,0.08 -0.03,0.07 -0.03,0.07 -0.04,0.07 -0.04,0.07 -0.04,0.07 -0.05,0.06 -0.05,0.06 -0.05,0.06 -0.06,0.06 -0.06,0.05 -0.06,0.05 -0.07,0.05 -0.06,0.05 -0.07,0.04 -0.07,0.04 -0.08,0.04 -0.07,0.03 -0.08,0.03 -0.08,0.03 -0.08,0.02 -0.09,0.02 -0.08,0.01 -0.09,0.01 -0.09,0.01 h -0.09 v -0.19 c 0.41,0 0.71,-0.2 0.86,-0.41 0.2,-0.27 0.22,-0.62 0.22,-0.96 0,-0.33 -0.02,-0.7 -0.23,-0.98 -0.19,-0.27 -0.51,-0.41 -0.85,-0.41 v 0 c -0.26,0 -0.64,0.09 -0.87,0.43 -0.19,0.28 -0.21,0.64 -0.21,0.96 0,0.3 0.01,0.71 0.26,1.01 0.17,0.21 0.46,0.36 0.82,0.36 v 0.19 c -0.96,0 -1.71,-0.75 -1.71,-1.62 0,-0.86 0.77,-1.55 1.71,-1.55 0.94,0 1.71,0.69 1.71,1.55 z"
         inkscape:connector-curvature="0"
         style="fill:#000000;stroke-width:0" /><path
         id="path18760"
         d="m 201.48,708.62 v -0.25 c 0.47,0 0.53,-0.05 0.53,-0.39 v -1.19 c 0,-0.61 -0.4,-1.03 -0.94,-1.03 -0.63,0 -0.66,0.29 -0.66,0.65 v 2.29 l -1.08,-0.08 v -0.25 c 0.53,0 0.53,-0.02 0.53,-0.64 v -1.04 c 0,-0.48 0,-1.13 1.17,-1.13 0.15,0 0.66,0 1,0.59 v 0 -0.59 l 1.05,0.07 v 0.25 c -0.47,0 -0.52,0.05 -0.52,0.39 v 2.43 z"
         inkscape:connector-curvature="0"
         style="fill:#000000;stroke-width:0" /><path
         id="path18762"
         d="m 204.76,708.38 h 1.09 v 0.25 h -1.09 v 1.28 h -0.24 c 0,-0.63 -0.29,-1.32 -0.96,-1.34 v -0.19 h 0.65 v -1.88 c 0,-0.78 0.59,-0.94 0.98,-0.94 0.47,0 0.79,0.4 0.79,0.95 v 0.38 h -0.24 v -0.38 c 0,-0.47 -0.22,-0.73 -0.5,-0.73 -0.48,0 -0.48,0.59 -0.48,0.71 z"
         inkscape:connector-curvature="0"
         style="fill:#000000;stroke-width:0" /><path
         id="path18764"
         d="m 208.41,704.53 h -0.02 -0.02 -0.02 -0.02 -0.02 -0.01 -0.02 -0.02 -0.02 -0.01 -0.02 -0.01 -0.02 l -0.01,0.01 h -0.02 -0.01 -0.01 -0.02 -0.02 -0.02 l -0.02,0.01 h -0.02 l -0.02,0.01 H 208 l -0.02,0.01 -0.01,0.01 -0.01,0.01 h -0.02 v 0.01 l -0.01,0.02 -0.01,0.01 -0.01,0.01 v 0.02 l -0.01,0.01 v 0.02 0.02 l -0.01,0.02 v 0.02 0.03 0.02 0.03 1.14 c 0.03,-0.04 0.36,-0.41 0.95,-0.41 l -0.04,0.2 c -0.62,0 -0.89,0.53 -0.91,0.57 v 1.62 c 0.21,0.34 0.62,0.52 0.99,0.52 0.58,0 1.04,-0.61 1.04,-1.34 0,-0.79 -0.53,-1.37 -1.12,-1.37 l 0.04,-0.2 c 0.92,0 1.71,0.69 1.71,1.57 0,0.86 -0.71,1.57 -1.6,1.57 -0.4,0 -0.8,-0.15 -1.09,-0.43 v 0.43 l -1.05,-0.08 v -0.25 c 0.49,0 0.53,-0.03 0.53,-0.33 v -3.21 c 0,-0.3 -0.07,-0.3 -0.53,-0.3 v -0.25 c 0.02,0 0.51,0.03 0.8,0.03 0.26,0 0.74,-0.02 0.8,-0.03 z"
         inkscape:connector-curvature="0"
         style="fill:#000000;stroke-width:0" /><path
         id="path18766"
         d="m 213.4,708.62 v -0.25 c 0.46,0 0.52,-0.05 0.52,-0.39 v -1.19 c 0,-0.61 -0.4,-1.03 -0.93,-1.03 -0.64,0 -0.67,0.29 -0.67,0.65 v 2.29 l -1.07,-0.08 v -0.25 c 0.52,0 0.52,-0.02 0.52,-0.64 v -1.04 c 0,-0.48 0,-1.13 1.17,-1.13 0.15,0 0.66,0 1,0.59 h 0.01 v -0.59 l 1.05,0.07 v 0.25 c -0.47,0 -0.53,0.05 -0.53,0.39 v 2.43 z"
         inkscape:connector-curvature="0"
         style="fill:#000000;stroke-width:0" /><path
         id="path18768"
         d="m 216.68,708.38 h 1.09 v 0.25 h -1.09 v 1.28 h -0.24 c -0.01,-0.63 -0.29,-1.32 -0.97,-1.34 v -0.19 h 0.65 v -1.88 c 0,-0.78 0.59,-0.94 0.98,-0.94 0.47,0 0.79,0.4 0.79,0.95 v 0.38 h -0.24 v -0.38 c 0,-0.47 -0.22,-0.73 -0.49,-0.73 -0.48,0 -0.48,0.59 -0.48,0.71 z"
         inkscape:connector-curvature="0"
         style="fill:#000000;stroke-width:0" /><path
         id="path18770"
         d="m 223.01,709.61 v 0.02 0.03 l -0.01,0.03 v 0.02 l -0.01,0.03 v 0.02 l -0.01,0.03 -0.01,0.02 -0.01,0.03 -0.01,0.02 -0.02,0.02 -0.01,0.02 -0.02,0.02 -0.01,0.02 -0.02,0.02 -0.02,0.02 -0.01,0.02 -0.02,0.01 -0.02,0.02 -0.02,0.01 -0.03,0.02 -0.02,0.01 -0.02,0.01 -0.02,0.01 -0.03,0.01 -0.02,0.01 -0.03,0.01 h -0.02 l -0.03,0.01 h -0.03 -0.02 l -0.03,0.01 c -0.29,0 -0.53,-0.24 -0.53,-0.53 0,-0.29 0.24,-0.53 0.53,-0.53 0.29,0 0.53,0.24 0.53,0.53 z"
         inkscape:connector-curvature="0"
         style="fill:#000000;stroke-width:0" /><path
         id="path18772"
         d="m 239.49,713.41 0.07,0.02 0.08,0.02 0.08,0.02 0.07,0.03 0.08,0.03 0.07,0.02 0.07,0.03 0.07,0.03 0.07,0.03 0.07,0.04 0.07,0.03 0.06,0.04 0.06,0.04 0.06,0.04 0.06,0.04 0.06,0.04 0.05,0.04 0.05,0.05 0.05,0.04 0.04,0.05 0.04,0.05 0.04,0.05 0.04,0.05 0.03,0.05 0.03,0.05 0.03,0.05 0.02,0.06 0.02,0.05 0.01,0.06 0.01,0.05 0.01,0.06 v 0.06 c 0,0.59 -0.71,1.07 -1.73,1.07 h -2.14 c -0.14,0 -0.23,0 -0.23,-0.16 0,-0.09 0.09,-0.09 0.23,-0.09 0,0 0.14,0 0.26,-0.02 0.15,-0.01 0.16,-0.02 0.16,-0.09 0,-0.02 0,-0.05 -0.02,-0.16 l -0.93,-3.69 c -0.06,-0.24 -0.07,-0.29 -0.62,-0.29 -0.12,0 -0.21,0 -0.21,-0.15 0,-0.07 0.05,-0.1 0.11,-0.1 0.13,0 0.3,0.02 0.44,0.02 0.13,0 0.33,0.01 0.46,0.01 0.14,0 0.3,-0.01 0.45,-0.01 0.14,0 0.32,-0.02 0.46,-0.02 0.04,0 0.15,0 0.15,0.14 0,0.11 -0.07,0.11 -0.23,0.11 -0.11,0 -0.14,0 -0.27,0.01 -0.15,0.02 -0.15,0.04 -0.15,0.11 0,0 0,0.05 0.03,0.15 l 0.44,1.76 h 0.95 l 0.01,0.19 h -0.91 l 0.45,1.79 c 0.05,0.2 0.07,0.22 0.22,0.24 h 0.45 c 0.65,0 1.45,0 1.45,-0.72 0,-0.28 -0.13,-0.72 -0.46,-0.97 -0.29,-0.22 -0.72,-0.34 -1.2,-0.34 l -0.01,-0.19 c 0.6,0 0.86,-0.3 0.86,-0.63 0,-0.09 -0.06,-0.32 -0.1,-0.48 -0.08,-0.32 -0.11,-0.43 -0.11,-0.55 0,-0.55 0.51,-0.76 1.03,-0.76 0.64,0 0.92,0.68 0.92,0.81 0,0.02 -0.01,0.09 -0.12,0.09 -0.09,0 -0.1,-0.05 -0.13,-0.11 -0.09,-0.31 -0.35,-0.6 -0.64,-0.6 -0.19,0 -0.32,0.08 -0.32,0.46 0,0.17 0.04,0.53 0.07,0.72 0.03,0.19 0.03,0.26 0.03,0.33 0,0.08 0,0.3 -0.2,0.51 -0.13,0.15 -0.32,0.24 -0.47,0.29 z"
         inkscape:connector-curvature="0"
         style="fill:#000000;stroke-width:0" /><path
         id="path18774"
         d="m 244.9,712.31 h -0.24 c -0.02,-0.15 -0.09,-0.56 -0.18,-0.63 -0.05,-0.04 -0.59,-0.04 -0.69,-0.04 h -1.28 c 0.73,0.65 0.97,0.84 1.39,1.17 0.52,0.41 1,0.84 1,1.5 0,0.84 -0.74,1.35 -1.63,1.35 -0.87,0 -1.46,-0.6 -1.46,-1.24 0,-0.35 0.3,-0.39 0.37,-0.39 0.17,0 0.37,0.12 0.37,0.37 0,0.13 -0.04,0.37 -0.41,0.37 0.22,0.49 0.69,0.64 1.02,0.64 0.7,0 1.07,-0.54 1.07,-1.1 0,-0.61 -0.44,-1.09 -0.66,-1.34 l -1.69,-1.65 c -0.07,-0.06 -0.07,-0.08 -0.07,-0.27 h 2.88 z"
         inkscape:connector-curvature="0"
         style="fill:#000000;stroke-width:0" /><line
         id="line18776"
         y2="709.62"
         x2="253.39999"
         y1="709.62"
         x1="227.27"
         style="fill:#000000;stroke-width:0.398" /><path
         id="path18778"
         d="m 231.43,706.05 0.07,0.02 0.08,0.02 0.08,0.03 0.07,0.02 0.08,0.03 0.07,0.02 0.07,0.03 0.07,0.03 0.07,0.04 0.07,0.03 0.06,0.04 0.07,0.03 0.06,0.04 0.06,0.04 0.06,0.04 0.05,0.04 0.06,0.05 0.05,0.04 0.04,0.05 0.05,0.04 0.04,0.05 0.04,0.05 0.04,0.05 0.03,0.05 0.03,0.05 0.02,0.05 0.03,0.06 0.01,0.05 0.02,0.06 0.01,0.05 0.01,0.06 v 0.06 c 0,0.6 -0.71,1.07 -1.73,1.07 h -2.15 c -0.13,0 -0.22,0 -0.22,-0.15 0,-0.1 0.09,-0.1 0.22,-0.1 0.01,0 0.14,0 0.27,-0.02 0.15,-0.01 0.16,-0.02 0.16,-0.09 0,-0.02 0,-0.05 -0.03,-0.16 l -0.93,-3.69 c -0.05,-0.23 -0.07,-0.29 -0.61,-0.29 -0.12,0 -0.21,0 -0.21,-0.15 0,-0.07 0.05,-0.1 0.11,-0.1 0.13,0 0.29,0.02 0.43,0.02 0.14,0 0.34,0.01 0.46,0.01 0.14,0 0.31,-0.01 0.45,-0.01 0.15,0 0.32,-0.02 0.47,-0.02 0.04,0 0.15,0 0.15,0.15 0,0.1 -0.07,0.1 -0.23,0.1 -0.12,0 -0.14,0 -0.27,0.01 -0.15,0.02 -0.15,0.04 -0.15,0.11 0,0.01 0,0.05 0.03,0.15 l 0.44,1.76 h 0.95 v 0.19 h -0.9 l 0.45,1.79 c 0.05,0.2 0.06,0.22 0.22,0.24 h 0.44 c 0.65,0 1.46,0 1.46,-0.72 0,-0.28 -0.13,-0.72 -0.46,-0.97 -0.29,-0.22 -0.72,-0.34 -1.21,-0.34 v -0.19 c 0.6,0 0.86,-0.3 0.86,-0.63 0,-0.08 -0.07,-0.32 -0.1,-0.48 -0.08,-0.32 -0.11,-0.43 -0.11,-0.54 0,-0.55 0.51,-0.77 1.03,-0.77 0.64,0 0.92,0.68 0.92,0.81 0,0.02 -0.02,0.1 -0.12,0.1 -0.09,0 -0.11,-0.05 -0.13,-0.12 -0.09,-0.31 -0.35,-0.59 -0.65,-0.59 -0.18,0 -0.31,0.07 -0.31,0.45 0,0.17 0.04,0.53 0.07,0.72 0.03,0.19 0.03,0.26 0.03,0.33 0,0.08 0,0.3 -0.2,0.51 -0.13,0.15 -0.32,0.24 -0.47,0.29 z"
         inkscape:connector-curvature="0"
         style="fill:#000000;stroke-width:0" /><path
         id="path18780"
         d="m 235.65,708.11 v 0.01 0.01 0.01 0.01 0 0.01 0.01 0.01 0 0.01 0 0.01 0.01 0 0.01 0 l -0.01,0.01 v 0 0.01 0.01 0.01 h -0.01 v 0.01 l -0.01,0.01 v 0 h -0.01 v 0.01 h -0.01 -0.01 v 0.01 h -0.01 -0.01 -0.01 v 0 h -0.01 v 0 h -0.01 l -0.01,0.01 v 0 h -0.01 -0.01 v 0 h -0.01 -0.01 -0.01 v 0 h -0.01 -0.01 -0.01 -0.01 c -0.45,-0.44 -1.08,-0.45 -1.37,-0.45 v -0.25 c 0.17,0 0.63,0 1.02,0.2 v -3.55 c 0,-0.23 0,-0.32 -0.7,-0.32 h -0.27 v -0.25 c 0.13,0.01 0.99,0.03 1.25,0.03 0.21,0 1.09,-0.02 1.25,-0.03 v 0.25 h -0.27 c -0.7,0 -0.7,0.09 -0.7,0.32 z"
         inkscape:connector-curvature="0"
         style="fill:#000000;stroke-width:0" /><path
         id="path18782"
         d="m 240.52,705.26 h 2.14 c 0.09,0 0.26,0 0.26,0.17 0,0.17 -0.16,0.17 -0.26,0.17 h -2.14 v 2.14 c 0,0.09 0,0.25 -0.17,0.25 -0.17,0 -0.17,-0.16 -0.17,-0.25 v -2.14 h -2.15 c -0.09,0 -0.26,0 -0.26,-0.17 0,-0.17 0.16,-0.17 0.26,-0.17 h 2.15 v -2.13 c 0,-0.09 0,-0.26 0.16,-0.26 0.18,0 0.18,0.16 0.18,0.26 z"
         inkscape:connector-curvature="0"
         style="fill:#000000;stroke-width:0" /><path
         id="path18784"
         d="m 247.55,706.05 0.08,0.02 0.07,0.02 0.08,0.03 0.08,0.02 0.07,0.03 0.07,0.02 0.08,0.03 0.07,0.03 0.07,0.04 0.06,0.03 0.07,0.04 0.06,0.03 0.07,0.04 0.06,0.04 0.05,0.04 0.06,0.04 0.05,0.05 0.05,0.04 0.05,0.05 0.04,0.04 0.05,0.05 0.04,0.05 0.03,0.05 0.03,0.05 0.03,0.05 0.03,0.05 0.02,0.06 0.02,0.05 0.01,0.06 0.01,0.05 0.01,0.06 v 0.06 c 0,0.6 -0.71,1.07 -1.72,1.07 h -2.15 c -0.13,0 -0.22,0 -0.22,-0.15 0,-0.1 0.08,-0.1 0.22,-0.1 0.01,0 0.14,0 0.27,-0.02 0.14,-0.01 0.16,-0.02 0.16,-0.09 0,-0.02 0,-0.05 -0.03,-0.16 l -0.93,-3.69 c -0.06,-0.23 -0.07,-0.29 -0.62,-0.29 -0.12,0 -0.21,0 -0.21,-0.15 0,-0.07 0.05,-0.1 0.12,-0.1 0.13,0 0.29,0.02 0.43,0.02 0.13,0 0.33,0.01 0.46,0.01 0.14,0 0.3,-0.01 0.45,-0.01 0.14,0 0.32,-0.02 0.47,-0.02 0.03,0 0.14,0 0.14,0.15 0,0.1 -0.07,0.1 -0.23,0.1 -0.11,0 -0.14,0 -0.26,0.01 -0.16,0.02 -0.16,0.04 -0.16,0.11 0,0.01 0,0.05 0.03,0.15 l 0.44,1.76 h 0.95 l 0.01,0.19 h -0.9 l 0.45,1.79 c 0.04,0.2 0.06,0.22 0.21,0.24 h 0.45 c 0.65,0 1.45,0 1.45,-0.72 0,-0.28 -0.13,-0.72 -0.46,-0.97 -0.29,-0.22 -0.72,-0.34 -1.2,-0.34 l -0.01,-0.19 c 0.6,0 0.86,-0.3 0.86,-0.63 0,-0.08 -0.06,-0.32 -0.1,-0.48 -0.08,-0.32 -0.11,-0.43 -0.11,-0.54 0,-0.55 0.51,-0.77 1.03,-0.77 0.64,0 0.92,0.68 0.92,0.81 0,0.02 -0.01,0.1 -0.12,0.1 -0.09,0 -0.1,-0.05 -0.12,-0.12 -0.1,-0.31 -0.36,-0.59 -0.65,-0.59 -0.18,0 -0.32,0.07 -0.32,0.45 0,0.17 0.04,0.53 0.07,0.72 0.03,0.19 0.03,0.26 0.03,0.33 0,0.08 0,0.3 -0.19,0.51 -0.14,0.15 -0.33,0.24 -0.48,0.29 z"
         inkscape:connector-curvature="0"
         style="fill:#000000;stroke-width:0" /><path
         id="path18786"
         d="m 252.96,704.96 h -0.23 c -0.02,-0.16 -0.09,-0.57 -0.19,-0.64 -0.05,-0.04 -0.59,-0.04 -0.69,-0.04 h -1.28 c 0.73,0.65 0.98,0.84 1.39,1.17 0.52,0.41 1,0.84 1,1.5 0,0.84 -0.74,1.36 -1.63,1.36 -0.87,0 -1.45,-0.61 -1.45,-1.25 0,-0.35 0.3,-0.39 0.36,-0.39 0.17,0 0.38,0.12 0.38,0.37 0,0.13 -0.05,0.37 -0.42,0.37 0.22,0.49 0.7,0.65 1.02,0.65 0.7,0 1.07,-0.54 1.07,-1.11 0,-0.6 -0.44,-1.08 -0.66,-1.33 l -1.69,-1.66 c -0.06,-0.06 -0.06,-0.07 -0.06,-0.27 h 2.88 z"
         inkscape:connector-curvature="0"
         style="fill:#000000;stroke-width:0" /></g>  </g>
</svg>
